{
  "manifestVersion": "3.2",
  "admin": {
    "address": "0x291383b98bF746E0c2E58A46aa1b064D2b75930b",
    "txHash": "0x704c9ffc2f022b984681d9e9e22744f8086202436aa3c1f423d483639070e786"
  },
  "proxies": [
    {
      "address": "0x7d17f3cFE96302C6cEb82333591828fDd2F76ab1",
      "txHash": "0xa9d195e02e20df8a7f58dd226a2c754fb6594df15e1576e81ea0b1065d1eb1c6",
      "kind": "transparent"
    },
    {
      "address": "0xDfC0aE3597961E8cbBb39da5D704A131EB594251",
      "txHash": "0xfe8a940edd2a4fbc72be5b225b497a40a87a92e73e23f661113e46a44bfa5c91",
      "kind": "transparent"
    }
  ],
  "impls": {
    "98b048fa581e6e27bdb94cf0fcfb843ad528ae60253fa143125e52e191df62bf": {
      "address": "0xAeD3694Bd318C85236C466a07e583e9c16dBa922",
      "txHash": "0xa3650466b186f60d9f22f23ad34e40c50dda36b3a5e6b02d8f3e75a15c855b57",
      "layout": {
        "solcVersion": "0.8.17",
        "storage": [
          {
            "label": "userBalance",
            "offset": 0,
            "slot": "0",
            "type": "t_mapping(t_address,t_uint256)",
            "contract": "Box",
            "src": "contracts/Box.sol:6"
          }
        ],
        "types": {
          "t_address": {
            "label": "address",
            "numberOfBytes": "20"
          },
          "t_mapping(t_address,t_uint256)": {
            "label": "mapping(address => uint256)",
            "numberOfBytes": "32"
          },
          "t_uint256": {
            "label": "uint256",
            "numberOfBytes": "32"
          }
        }
      }
    },
    "cba9f8cf52e3c449631a04ea218a6cedcaf7c366669cfc257c89a008266c768f": {
      "address": "0xC88dDf3F9c9572b89fE319bc01De7332EAB8c944",
      "txHash": "0x8811aa07ced2febbb3847c5637d21594a709de0831adead126c64fab8f56f960",
      "layout": {
        "solcVersion": "0.8.17",
        "storage": [
          {
            "label": "value",
            "offset": 0,
            "slot": "0",
            "type": "t_uint256",
            "contract": "Box",
            "src": "contracts/Box.sol:5"
          }
        ],
        "types": {
          "t_uint256": {
            "label": "uint256",
            "numberOfBytes": "32"
          }
        }
      }
    }
  }
}
