{
  "manifestVersion": "3.2",
  "admin": {
    "address": "0x4A679253410272dd5232B3Ff7cF5dbB88f295319",
    "txHash": "0xfcff0e97dea3225f3496e7f18ad67fd5a7b2fedda6a2703541f68f74c5846ac6"
  },
  "proxies": [
    {
      "address": "0xCf7Ed3AccA5a467e9e704C703E8D87F634fB0Fc9",
      "txHash": "0xe93cff0a70ceb2f578759af6e190fdc19fb86d8034c228388c9ef28c79f491fb",
      "kind": "transparent"
    },
    {
      "address": "0x9fE46736679d2D9a65F0992F2272dE9f3c7fa6e0",
      "txHash": "0x84e3c6c364581946d77a8ed7de0c0df25fe5051b3aa75f0e7daa7607f63f9457",
      "kind": "transparent"
    },
    {
      "address": "0xDc64a140Aa3E981100a9becA4E685f962f0cF6C9",
      "txHash": "0x821bd80fc50ce7daf66376d9ade4712f4cad5020b25a31ff14440b6fc61acac1",
      "kind": "transparent"
    },
    {
      "address": "0x7a2088a1bFc9d81c55368AE168C2C02570cB814F",
      "txHash": "0xf8e93efe1379f28f6ac7b3e5df530053d5f26a8d0bbec7385558065249a1b581",
      "kind": "transparent"
    }
  ],
  "impls": {
    "cba9f8cf52e3c449631a04ea218a6cedcaf7c366669cfc257c89a008266c768f": {
      "address": "0x5FbDB2315678afecb367f032d93F642f64180aa3",
      "txHash": "0x94118ff161582dffac8fdda0985217edabc501ca75eba1f97c6cd88db49a253b",
      "layout": {
        "solcVersion": "0.8.17",
        "storage": [
          {
            "label": "value",
            "offset": 0,
            "slot": "0",
            "type": "t_uint256",
            "contract": "Box",
            "src": "contracts/Box.sol:5"
          }
        ],
        "types": {
          "t_uint256": {
            "label": "uint256",
            "numberOfBytes": "32"
          }
        }
      }
    },
    "be76c59277bf58da5947bf5fe99dc080f5816b8896daa45b06a05121edcc3919": {
      "address": "0x8A791620dd6260079BF849Dc5567aDC3F2FdC318",
      "txHash": "0x5f61c4c8f93a81a248aa63f344c92a022482851f2634384922b737a72ce70532",
      "layout": {
        "solcVersion": "0.8.17",
        "storage": [
          {
            "label": "balances",
            "offset": 0,
            "slot": "0",
            "type": "t_mapping(t_address,t_uint256)",
            "contract": "Transaction",
            "src": "contracts/Transaction.sol:6"
          },
          {
            "label": "owner",
            "offset": 0,
            "slot": "1",
            "type": "t_address",
            "contract": "Transaction",
            "src": "contracts/Transaction.sol:10"
          }
        ],
        "types": {
          "t_address": {
            "label": "address",
            "numberOfBytes": "20"
          },
          "t_mapping(t_address,t_uint256)": {
            "label": "mapping(address => uint256)",
            "numberOfBytes": "32"
          },
          "t_uint256": {
            "label": "uint256",
            "numberOfBytes": "32"
          }
        }
      }
    },
    "39eb16ada81a7a60ada35f8ecca9cf3324126013e5c86bd3a1afdcb6c5bd8719": {
      "address": "0x610178dA211FEF7D417bC0e6FeD39F05609AD788",
      "txHash": "0x3b8017888de5d973fdcdbd6037638e507e2993749a6eada0e53ad334e7d1856c",
      "layout": {
        "solcVersion": "0.8.17",
        "storage": [
          {
            "label": "balances",
            "offset": 0,
            "slot": "0",
            "type": "t_mapping(t_address,t_uint256)",
            "contract": "Transaction",
            "src": "contracts/Transaction.sol:6"
          },
          {
            "label": "owner",
            "offset": 0,
            "slot": "1",
            "type": "t_address",
            "contract": "Transaction",
            "src": "contracts/Transaction.sol:10"
          }
        ],
        "types": {
          "t_address": {
            "label": "address",
            "numberOfBytes": "20"
          },
          "t_mapping(t_address,t_uint256)": {
            "label": "mapping(address => uint256)",
            "numberOfBytes": "32"
          },
          "t_uint256": {
            "label": "uint256",
            "numberOfBytes": "32"
          }
        }
      }
    },
    "f46a03cc97a15693ca7166fde9b663c416025bee8de3492533920dcc6b0158bf": {
      "address": "0xB7f8BC63BbcaD18155201308C8f3540b07f84F5e",
      "txHash": "0xa3bc823efff581eace68952b03de142bc1ac92944d22068a75c9274a62d0f074",
      "layout": {
        "solcVersion": "0.8.17",
        "storage": [
          {
            "label": "balances",
            "offset": 0,
            "slot": "0",
            "type": "t_mapping(t_address,t_uint256)",
            "contract": "Transaction",
            "src": "contracts/Transaction.sol:6"
          }
        ],
        "types": {
          "t_address": {
            "label": "address",
            "numberOfBytes": "20"
          },
          "t_mapping(t_address,t_uint256)": {
            "label": "mapping(address => uint256)",
            "numberOfBytes": "32"
          },
          "t_uint256": {
            "label": "uint256",
            "numberOfBytes": "32"
          }
        }
      }
    },
    "e523b78cee6f0edb67c3f87b814ca7e9e1a32c0b81b1c2af645f624e84f2198f": {
      "address": "0xA51c1fc2f0D1a1b8494Ed1FE312d7C3a78Ed91C0",
      "txHash": "0x3bd33ae7bd4dde72d07dbaebcdec59a99d169d9bcae9d2de457c7152606b7592",
      "layout": {
        "solcVersion": "0.8.17",
        "storage": [
          {
            "label": "balances",
            "offset": 0,
            "slot": "0",
            "type": "t_mapping(t_address,t_uint256)",
            "contract": "Transaction",
            "src": "contracts/Transaction.sol:6"
          },
          {
            "label": "owner",
            "offset": 0,
            "slot": "1",
            "type": "t_address",
            "contract": "Transaction",
            "src": "contracts/Transaction.sol:10"
          },
          {
            "label": "initialized",
            "offset": 20,
            "slot": "1",
            "type": "t_bool",
            "contract": "Transaction",
            "src": "contracts/Transaction.sol:17"
          }
        ],
        "types": {
          "t_address": {
            "label": "address",
            "numberOfBytes": "20"
          },
          "t_bool": {
            "label": "bool",
            "numberOfBytes": "1"
          },
          "t_mapping(t_address,t_uint256)": {
            "label": "mapping(address => uint256)",
            "numberOfBytes": "32"
          },
          "t_uint256": {
            "label": "uint256",
            "numberOfBytes": "32"
          }
        }
      }
    },
    "c56270730dd0c35666e662a4e27c5d7b6954a384a6a5a3851f6e8bba85330bdf": {
      "address": "0x0DCd1Bf9A1b36cE34237eEaFef220932846BCD82",
      "txHash": "0xe870e0f6ae8e223f29dbe0416ae7613b160a1af0f959a211b72def4ec06e73d1",
      "layout": {
        "solcVersion": "0.8.17",
        "storage": [
          {
            "label": "balances",
            "offset": 0,
            "slot": "0",
            "type": "t_mapping(t_address,t_uint256)",
            "contract": "Transaction",
            "src": "contracts/Transaction.sol:6"
          },
          {
            "label": "owner",
            "offset": 0,
            "slot": "1",
            "type": "t_address",
            "contract": "Transaction",
            "src": "contracts/Transaction.sol:10"
          },
          {
            "label": "initialized",
            "offset": 20,
            "slot": "1",
            "type": "t_bool",
            "contract": "Transaction",
            "src": "contracts/Transaction.sol:17"
          }
        ],
        "types": {
          "t_address": {
            "label": "address",
            "numberOfBytes": "20"
          },
          "t_bool": {
            "label": "bool",
            "numberOfBytes": "1"
          },
          "t_mapping(t_address,t_uint256)": {
            "label": "mapping(address => uint256)",
            "numberOfBytes": "32"
          },
          "t_uint256": {
            "label": "uint256",
            "numberOfBytes": "32"
          }
        }
      }
    },
    "292e1eba409f25c3781dfeb6fb4b58e6124ece7e21f834ec0e90c62153d6de4b": {
      "address": "0x9A676e781A523b5d0C0e43731313A708CB607508",
      "txHash": "0xe30d5dd68f1e1c0490993346814028ee35b67b22fe0213fd6f533b5252677497",
      "layout": {
        "solcVersion": "0.8.17",
        "storage": [
          {
            "label": "_initialized",
            "offset": 0,
            "slot": "0",
            "type": "t_uint8",
            "contract": "Initializable",
            "src": "@openzeppelin/contracts-upgradeable/proxy/utils/Initializable.sol:62",
            "retypedFrom": "bool"
          },
          {
            "label": "_initializing",
            "offset": 1,
            "slot": "0",
            "type": "t_bool",
            "contract": "Initializable",
            "src": "@openzeppelin/contracts-upgradeable/proxy/utils/Initializable.sol:67"
          },
          {
            "label": "balances",
            "offset": 0,
            "slot": "1",
            "type": "t_mapping(t_address,t_uint256)",
            "contract": "Transaction",
            "src": "contracts/Transaction.sol:8"
          },
          {
            "label": "owner",
            "offset": 0,
            "slot": "2",
            "type": "t_address",
            "contract": "Transaction",
            "src": "contracts/Transaction.sol:12"
          }
        ],
        "types": {
          "t_address": {
            "label": "address",
            "numberOfBytes": "20"
          },
          "t_bool": {
            "label": "bool",
            "numberOfBytes": "1"
          },
          "t_mapping(t_address,t_uint256)": {
            "label": "mapping(address => uint256)",
            "numberOfBytes": "32"
          },
          "t_uint256": {
            "label": "uint256",
            "numberOfBytes": "32"
          },
          "t_uint8": {
            "label": "uint8",
            "numberOfBytes": "1"
          }
        }
      }
    },
    "0b5baa1b53ca606c9a46788e3187fb65f3dcb946c633ef93307d3eea3f8469d6": {
      "address": "0x0B306BF915C4d645ff596e518fAf3F9669b97016",
      "txHash": "0x6c46084e9e99e8802eabcef1ff8e592b049d31ccbf8629fc787878fc90ed3055",
      "layout": {
        "solcVersion": "0.8.17",
        "storage": [
          {
            "label": "_initialized",
            "offset": 0,
            "slot": "0",
            "type": "t_uint8",
            "contract": "Initializable",
            "src": "@openzeppelin/contracts-upgradeable/proxy/utils/Initializable.sol:62",
            "retypedFrom": "bool"
          },
          {
            "label": "_initializing",
            "offset": 1,
            "slot": "0",
            "type": "t_bool",
            "contract": "Initializable",
            "src": "@openzeppelin/contracts-upgradeable/proxy/utils/Initializable.sol:67"
          },
          {
            "label": "balances",
            "offset": 0,
            "slot": "1",
            "type": "t_mapping(t_address,t_uint256)",
            "contract": "Transaction",
            "src": "contracts/Transaction.sol:8"
          },
          {
            "label": "owner",
            "offset": 0,
            "slot": "2",
            "type": "t_address",
            "contract": "Transaction",
            "src": "contracts/Transaction.sol:12"
          }
        ],
        "types": {
          "t_address": {
            "label": "address",
            "numberOfBytes": "20"
          },
          "t_bool": {
            "label": "bool",
            "numberOfBytes": "1"
          },
          "t_mapping(t_address,t_uint256)": {
            "label": "mapping(address => uint256)",
            "numberOfBytes": "32"
          },
          "t_uint256": {
            "label": "uint256",
            "numberOfBytes": "32"
          },
          "t_uint8": {
            "label": "uint8",
            "numberOfBytes": "1"
          }
        }
      }
    },
    "390636a5df1ae5cde8b33cd1ca0433f184cf4e5d40c04aec5beee60e8b1f25a1": {
      "address": "0x959922bE3CAee4b8Cd9a407cc3ac1C251C2007B1",
      "txHash": "0x0c7c23b95b483914529acf26ea1435c578782c827a2d3931175199444d458d1d",
      "layout": {
        "solcVersion": "0.8.17",
        "storage": [
          {
            "label": "_initialized",
            "offset": 0,
            "slot": "0",
            "type": "t_uint8",
            "contract": "Initializable",
            "src": "@openzeppelin/contracts-upgradeable/proxy/utils/Initializable.sol:62",
            "retypedFrom": "bool"
          },
          {
            "label": "_initializing",
            "offset": 1,
            "slot": "0",
            "type": "t_bool",
            "contract": "Initializable",
            "src": "@openzeppelin/contracts-upgradeable/proxy/utils/Initializable.sol:67"
          },
          {
            "label": "balances",
            "offset": 0,
            "slot": "1",
            "type": "t_mapping(t_address,t_uint256)",
            "contract": "Transaction",
            "src": "contracts/Transaction.sol:8"
          },
          {
            "label": "_owner",
            "offset": 0,
            "slot": "2",
            "type": "t_address",
            "contract": "Transaction",
            "src": "contracts/Transaction.sol:12"
          }
        ],
        "types": {
          "t_address": {
            "label": "address",
            "numberOfBytes": "20"
          },
          "t_bool": {
            "label": "bool",
            "numberOfBytes": "1"
          },
          "t_mapping(t_address,t_uint256)": {
            "label": "mapping(address => uint256)",
            "numberOfBytes": "32"
          },
          "t_uint256": {
            "label": "uint256",
            "numberOfBytes": "32"
          },
          "t_uint8": {
            "label": "uint8",
            "numberOfBytes": "1"
          }
        }
      }
    },
    "a6971a247475f6946e99677cf5f9113bf17af47e3d3e8b8a772a97450298b685": {
      "address": "0x9A9f2CCfdE556A7E9Ff0848998Aa4a0CFD8863AE",
      "txHash": "0x8561dbc63b0c7c063b32c1e3e0e8dde29c461e21fa4925f3ff4c676c06cecf09",
      "layout": {
        "solcVersion": "0.8.17",
        "storage": [
          {
            "label": "_initialized",
            "offset": 0,
            "slot": "0",
            "type": "t_uint8",
            "contract": "Initializable",
            "src": "@openzeppelin/contracts-upgradeable/proxy/utils/Initializable.sol:62",
            "retypedFrom": "bool"
          },
          {
            "label": "_initializing",
            "offset": 1,
            "slot": "0",
            "type": "t_bool",
            "contract": "Initializable",
            "src": "@openzeppelin/contracts-upgradeable/proxy/utils/Initializable.sol:67"
          },
          {
            "label": "balances",
            "offset": 0,
            "slot": "1",
            "type": "t_mapping(t_address,t_uint256)",
            "contract": "Transaction",
            "src": "contracts/Transaction.sol:8"
          },
          {
            "label": "_owner",
            "offset": 0,
            "slot": "2",
            "type": "t_address",
            "contract": "Transaction",
            "src": "contracts/Transaction.sol:9"
          }
        ],
        "types": {
          "t_address": {
            "label": "address",
            "numberOfBytes": "20"
          },
          "t_bool": {
            "label": "bool",
            "numberOfBytes": "1"
          },
          "t_mapping(t_address,t_uint256)": {
            "label": "mapping(address => uint256)",
            "numberOfBytes": "32"
          },
          "t_uint256": {
            "label": "uint256",
            "numberOfBytes": "32"
          },
          "t_uint8": {
            "label": "uint8",
            "numberOfBytes": "1"
          }
        }
      }
    },
    "05d63fb3b91e1017fd83ed4d911b80c00582c0a0686dcbb412734f5675d68b10": {
      "address": "0xa85233C63b9Ee964Add6F2cffe00Fd84eb32338f",
      "txHash": "0x1ec54cbcfd4df882b5fb94239804484a828b611cbefe2b07486dc5196838534f",
      "layout": {
        "solcVersion": "0.8.17",
        "storage": [
          {
            "label": "_initialized",
            "offset": 0,
            "slot": "0",
            "type": "t_uint8",
            "contract": "Initializable",
            "src": "@openzeppelin/contracts-upgradeable/proxy/utils/Initializable.sol:62",
            "retypedFrom": "bool"
          },
          {
            "label": "_initializing",
            "offset": 1,
            "slot": "0",
            "type": "t_bool",
            "contract": "Initializable",
            "src": "@openzeppelin/contracts-upgradeable/proxy/utils/Initializable.sol:67"
          },
          {
            "label": "balances",
            "offset": 0,
            "slot": "1",
            "type": "t_mapping(t_address,t_uint256)",
            "contract": "TransactionV2",
            "src": "contracts/TransactionV2.sol:8"
          },
          {
            "label": "_owner",
            "offset": 0,
            "slot": "2",
            "type": "t_address",
            "contract": "TransactionV2",
            "src": "contracts/TransactionV2.sol:9"
          },
          {
            "label": "_amount",
            "offset": 0,
            "slot": "3",
            "type": "t_uint256",
            "contract": "TransactionV2",
            "src": "contracts/TransactionV2.sol:10"
          }
        ],
        "types": {
          "t_address": {
            "label": "address",
            "numberOfBytes": "20"
          },
          "t_bool": {
            "label": "bool",
            "numberOfBytes": "1"
          },
          "t_mapping(t_address,t_uint256)": {
            "label": "mapping(address => uint256)",
            "numberOfBytes": "32"
          },
          "t_uint256": {
            "label": "uint256",
            "numberOfBytes": "32"
          },
          "t_uint8": {
            "label": "uint8",
            "numberOfBytes": "1"
          }
        }
      }
    },
    "ff1b63a1fef917df667b7e5ee9dabe0bd9ff31e229feddfd7b0bedf0e65e624d": {
      "address": "0x1429859428C0aBc9C2C47C8Ee9FBaf82cFA0F20f",
      "txHash": "0x58816df7abf18825a05fa49410a693bc87a4d9707f697a1edd8b9c7096252a33",
      "layout": {
        "solcVersion": "0.8.17",
        "storage": [
          {
            "label": "_initialized",
            "offset": 0,
            "slot": "0",
            "type": "t_uint8",
            "contract": "Initializable",
            "src": "@openzeppelin/contracts-upgradeable/proxy/utils/Initializable.sol:62",
            "retypedFrom": "bool"
          },
          {
            "label": "_initializing",
            "offset": 1,
            "slot": "0",
            "type": "t_bool",
            "contract": "Initializable",
            "src": "@openzeppelin/contracts-upgradeable/proxy/utils/Initializable.sol:67"
          },
          {
            "label": "balances",
            "offset": 0,
            "slot": "1",
            "type": "t_mapping(t_address,t_uint256)",
            "contract": "TransactionV2",
            "src": "contracts/TransactionV2.sol:8"
          },
          {
            "label": "_owner",
            "offset": 0,
            "slot": "2",
            "type": "t_address",
            "contract": "TransactionV2",
            "src": "contracts/TransactionV2.sol:9"
          },
          {
            "label": "_amount",
            "offset": 0,
            "slot": "3",
            "type": "t_uint256",
            "contract": "TransactionV2",
            "src": "contracts/TransactionV2.sol:10"
          }
        ],
        "types": {
          "t_address": {
            "label": "address",
            "numberOfBytes": "20"
          },
          "t_bool": {
            "label": "bool",
            "numberOfBytes": "1"
          },
          "t_mapping(t_address,t_uint256)": {
            "label": "mapping(address => uint256)",
            "numberOfBytes": "32"
          },
          "t_uint256": {
            "label": "uint256",
            "numberOfBytes": "32"
          },
          "t_uint8": {
            "label": "uint8",
            "numberOfBytes": "1"
          }
        }
      }
    },
    "6f3b8200230096e20381cd7c2574a7a4bd125850af710fd9640c0535b6b070ef": {
      "address": "0x46b142DD1E924FAb83eCc3c08e4D46E82f005e0E",
      "txHash": "0x94ddb720382fd97b8fb78ec21d94703e6c587954e234b83ecd50529ea66e9f27",
      "layout": {
        "solcVersion": "0.8.17",
        "storage": [
          {
            "label": "_initialized",
            "offset": 0,
            "slot": "0",
            "type": "t_uint8",
            "contract": "Initializable",
            "src": "@openzeppelin/contracts-upgradeable/proxy/utils/Initializable.sol:62",
            "retypedFrom": "bool"
          },
          {
            "label": "_initializing",
            "offset": 1,
            "slot": "0",
            "type": "t_bool",
            "contract": "Initializable",
            "src": "@openzeppelin/contracts-upgradeable/proxy/utils/Initializable.sol:67"
          },
          {
            "label": "balances",
            "offset": 0,
            "slot": "1",
            "type": "t_mapping(t_address,t_uint256)",
            "contract": "TransactionV2",
            "src": "contracts/TransactionV2.sol:8"
          },
          {
            "label": "_owner",
            "offset": 0,
            "slot": "2",
            "type": "t_address",
            "contract": "TransactionV2",
            "src": "contracts/TransactionV2.sol:9"
          },
          {
            "label": "_amount",
            "offset": 0,
            "slot": "3",
            "type": "t_uint256",
            "contract": "TransactionV2",
            "src": "contracts/TransactionV2.sol:10"
          }
        ],
        "types": {
          "t_address": {
            "label": "address",
            "numberOfBytes": "20"
          },
          "t_bool": {
            "label": "bool",
            "numberOfBytes": "1"
          },
          "t_mapping(t_address,t_uint256)": {
            "label": "mapping(address => uint256)",
            "numberOfBytes": "32"
          },
          "t_uint256": {
            "label": "uint256",
            "numberOfBytes": "32"
          },
          "t_uint8": {
            "label": "uint8",
            "numberOfBytes": "1"
          }
        }
      }
    },
    "3895b46117327d8986a6016e59bd06b62f26012a82d5acc30ffe929cbd650967": {
      "address": "0x367761085BF3C12e5DA2Df99AC6E1a824612b8fb",
      "txHash": "0xb318516e312df8f4e150726dedd5ac3dee710120301b553c7d5b9eb87b2edd14",
      "layout": {
        "solcVersion": "0.8.17",
        "storage": [
          {
            "label": "_initialized",
            "offset": 0,
            "slot": "0",
            "type": "t_uint8",
            "contract": "Initializable",
            "src": "@openzeppelin/contracts-upgradeable/proxy/utils/Initializable.sol:62",
            "retypedFrom": "bool"
          },
          {
            "label": "_initializing",
            "offset": 1,
            "slot": "0",
            "type": "t_bool",
            "contract": "Initializable",
            "src": "@openzeppelin/contracts-upgradeable/proxy/utils/Initializable.sol:67"
          },
          {
            "label": "balances",
            "offset": 0,
            "slot": "1",
            "type": "t_mapping(t_address,t_uint256)",
            "contract": "TransactionV2",
            "src": "contracts/TransactionV2.sol:8"
          },
          {
            "label": "_owner",
            "offset": 0,
            "slot": "2",
            "type": "t_address",
            "contract": "TransactionV2",
            "src": "contracts/TransactionV2.sol:9"
          },
          {
            "label": "_amount",
            "offset": 0,
            "slot": "3",
            "type": "t_uint256",
            "contract": "TransactionV2",
            "src": "contracts/TransactionV2.sol:10"
          }
        ],
        "types": {
          "t_address": {
            "label": "address",
            "numberOfBytes": "20"
          },
          "t_bool": {
            "label": "bool",
            "numberOfBytes": "1"
          },
          "t_mapping(t_address,t_uint256)": {
            "label": "mapping(address => uint256)",
            "numberOfBytes": "32"
          },
          "t_uint256": {
            "label": "uint256",
            "numberOfBytes": "32"
          },
          "t_uint8": {
            "label": "uint8",
            "numberOfBytes": "1"
          }
        }
      }
    },
    "843ebbfdb3751701028ed01daf4ad098cbac9137c607b6c1ba53815a688b585a": {
      "address": "0x49fd2BE640DB2910c2fAb69bB8531Ab6E76127ff",
      "txHash": "0x9e8b6ce5f4062ea6be676180ee6317ddd3446cb6fcf38a020dccbe90c6655de5",
      "layout": {
        "solcVersion": "0.8.17",
        "storage": [
          {
            "label": "_initialized",
            "offset": 0,
            "slot": "0",
            "type": "t_uint8",
            "contract": "Initializable",
            "src": "@openzeppelin/contracts-upgradeable/proxy/utils/Initializable.sol:62",
            "retypedFrom": "bool"
          },
          {
            "label": "_initializing",
            "offset": 1,
            "slot": "0",
            "type": "t_bool",
            "contract": "Initializable",
            "src": "@openzeppelin/contracts-upgradeable/proxy/utils/Initializable.sol:67"
          },
          {
            "label": "balances",
            "offset": 0,
            "slot": "1",
            "type": "t_mapping(t_address,t_uint256)",
            "contract": "TransactionV2",
            "src": "contracts/TransactionV2.sol:8"
          },
          {
            "label": "_owner",
            "offset": 0,
            "slot": "2",
            "type": "t_address",
            "contract": "TransactionV2",
            "src": "contracts/TransactionV2.sol:9"
          },
          {
            "label": "_amount",
            "offset": 0,
            "slot": "3",
            "type": "t_uint256",
            "contract": "TransactionV2",
            "src": "contracts/TransactionV2.sol:10"
          }
        ],
        "types": {
          "t_address": {
            "label": "address",
            "numberOfBytes": "20"
          },
          "t_bool": {
            "label": "bool",
            "numberOfBytes": "1"
          },
          "t_mapping(t_address,t_uint256)": {
            "label": "mapping(address => uint256)",
            "numberOfBytes": "32"
          },
          "t_uint256": {
            "label": "uint256",
            "numberOfBytes": "32"
          },
          "t_uint8": {
            "label": "uint8",
            "numberOfBytes": "1"
          }
        }
      }
    },
    "57e014b690e6efe79f24962cc1242894beb056b032c95a62de0086bb6f030181": {
      "address": "0xA4899D35897033b927acFCf422bc745916139776",
      "txHash": "0x61f48af6cef5e0691b4ee0811c72801a9ca188e8ece4127863a754e45c419a54",
      "layout": {
        "solcVersion": "0.8.17",
        "storage": [
          {
            "label": "_initialized",
            "offset": 0,
            "slot": "0",
            "type": "t_uint8",
            "contract": "Initializable",
            "src": "@openzeppelin/contracts-upgradeable/proxy/utils/Initializable.sol:62",
            "retypedFrom": "bool"
          },
          {
            "label": "_initializing",
            "offset": 1,
            "slot": "0",
            "type": "t_bool",
            "contract": "Initializable",
            "src": "@openzeppelin/contracts-upgradeable/proxy/utils/Initializable.sol:67"
          },
          {
            "label": "balances",
            "offset": 0,
            "slot": "1",
            "type": "t_mapping(t_address,t_uint256)",
            "contract": "TransactionV2",
            "src": "contracts/TransactionV2.sol:8"
          },
          {
            "label": "_owner",
            "offset": 0,
            "slot": "2",
            "type": "t_address",
            "contract": "TransactionV2",
            "src": "contracts/TransactionV2.sol:9"
          },
          {
            "label": "_amount",
            "offset": 0,
            "slot": "3",
            "type": "t_uint256",
            "contract": "TransactionV2",
            "src": "contracts/TransactionV2.sol:10"
          }
        ],
        "types": {
          "t_address": {
            "label": "address",
            "numberOfBytes": "20"
          },
          "t_bool": {
            "label": "bool",
            "numberOfBytes": "1"
          },
          "t_mapping(t_address,t_uint256)": {
            "label": "mapping(address => uint256)",
            "numberOfBytes": "32"
          },
          "t_uint256": {
            "label": "uint256",
            "numberOfBytes": "32"
          },
          "t_uint8": {
            "label": "uint8",
            "numberOfBytes": "1"
          }
        }
      }
    }
  }
}
